{
    "query" : {
        "bool": { "must": {"query_string": {"query": "chemotherapy"}}}
    },
    "aggregations" : {
        "significant_body" : {
            "significant_terms" : { "field" : "body" }
        }
    }
}
