{"index":{"_id":"1"}}
{ "author": "Gromyko", "title": "True enemies", "language": "ru", "year of publishing": 2014, "genre": "fantastic"}
{"index":{"_id":"2"}}
{"author": "Strugatsky", "title": "The Final Circle of Paradise ","language": "en", "year of publishing": 1965,"genre": "fantastic"}
{"index":{"_id":"3"}}
{"author": "Marquez","title": "One Hundred Years of Solitude","language": "sp","year of publishing": 1967,"genre": " magical realist"}
{"index":{"_id":"4"}}
{"author": "Hemingway","title": "For Whom the Bell Tolls","language": "en","year of publishing": 1940,"genre": "realist"}
{"index":{"_id":"5"}}
{"author": "Oldi","title": "I will Take It Myself","language": "ru","year of publishing": 1998,"genre": "fantastic"} 

