{"index":{"_id":"1"}}
{"author":"John Michael", "published":"2018-07-08", "title":"Tesla is flirting with its lowest close in over 1 1/2 years (TSLA)", "topic":"automobile","views":"431" }
{"index":{"_id":"2"}}
{"author":"John Michael", "published":"2018-07-22", "title":"Tesla to end up like Lehman Brothers (TSLA)", "topic":"automobile", "views":"1921" }
{"index":{"_id":"3"}}
{"author":"John Michael", "published":"2018-07-29", "title":"Tesla (TSLA) official says that they are going to release a new self-driving car model in the coming year", "topic":"automobile", "views":"1849" }
{"index":{"_id":"4"}}
{"author":"John Michael", "published":"2018-08-14", "title":"Five ways Tesla uses AI and Big Data", "topic":"ai", "views":"871" }
{"index":{"_id":"5"}}
{"author":"John Michael", "published":"2018-08-14", "title":"Toyota partners with Tesla (TSLA) to improve the security of self-driving cars", "topic":"automobile", "views":"871" }
{"index":{"_id":"6"}}
{"author":"Robert Cann", "published":"2018-08-25", "title":"Is AI dangerous for humanity", "topic":"ai", "views":"981" }
{"index":{"_id":"7"}}
{"author":"Robert Cann", "published":"2018-09-13", "title":"Is AI dangerous for humanity", "topic":"ai", "views":"871" }
{"index":{"_id":"8"}}
{"author":"Robert Cann", "published":"2018-09-27", "title":"Introduction to Generative Adversarial Networks (GANs) in self-driving cars", "topic":"automobile", "views":"1183" }
{"index":{"_id":"9"}}
{"author":"Robert Cann", "published":"2018-10-09", "title":"Introduction to Natural Language Processing", "topic":"ai", "views":"786" }
{"index":{"_id":"10"}}
{"author":"Robert Cann", "published":"2018-10-15", "title":"New Distant Objects Found in the Fight for Planet X ", "topic":"astronomy", "views":"542" }



