{
 "mappings": {
     "properties": {
	 "published": {
	     "type": "date",
	     "format": "dateOptionalTime"
	 },
	 "author": {
	     "type": "keyword"
	 },
	 "title": {
	     "type": "text"
	 },
	 "topic": {
	     "type":"keyword"
	 },
	 "views": {
	     "type": "integer"
	 }
     }
 }
}
