{
  "settings": {
      "index" : {
      "number_of_shards" : 1,
      "number_of_replicas" : 0
      },
      "analysis": {
      "analyzer": {
        "english_exact": {
          "tokenizer": "standard",
          "filter": [
            "lowercase"
          ]
        }
      }
    }
  },
  "mappings": {
    "properties": {
	"id" : {
	  "type": "keyword"
      },
      "body": {
        "type": "text",
          "fielddata":true,
	  "index_phrases": true,
        "analyzer": "english",
        "term_vector": "with_positions_offsets_payloads",
        "store" : true,
	  "fields": {
              "exact": {
		  "type": "text",
		  "analyzer": "english_exact"
              }
	  }
      }
    }
  }
}
